[
	{
		"anonymous": false,
		"inputs": [
			{
				"indexed": false,
				"internalType": "address",
				"name": "previousAdmin",
				"type": "address"
			},
			{
				"indexed": false,
				"internalType": "address",
				"name": "newAdmin",
				"type": "address"
			}
		],
		"name": "AdminChanged",
		"type": "event"
	},
	{
		"anonymous": false,
		"inputs": [
			{
				"indexed": false,
				"internalType": "uint256",
				"name": "auditID",
				"type": "uint256"
			}
		],
		"name": "Audit",
		"type": "event"
	},
	{
		"anonymous": false,
		"inputs": [
			{
				"indexed": true,
				"internalType": "address",
				"name": "beacon",
				"type": "address"
			}
		],
		"name": "BeaconUpgraded",
		"type": "event"
	},
	{
		"anonymous": false,
		"inputs": [
			{
				"indexed": true,
				"internalType": "address",
				"name": "assayer",
				"type": "address"
			},
			{
				"indexed": false,
				"internalType": "uint256",
				"name": "auditID",
				"type": "uint256"
			},
			{
				"indexed": false,
				"internalType": "uint256",
				"name": "assayID",
				"type": "uint256"
			}
		],
		"name": "CommittedAssay",
		"type": "event"
	},
	{
		"anonymous": false,
		"inputs": [
			{
				"indexed": false,
				"internalType": "uint256",
				"name": "marketID",
				"type": "uint256"
			}
		],
		"name": "NewMarket",
		"type": "event"
	},
	{
		"anonymous": false,
		"inputs": [
			{
				"indexed": false,
				"internalType": "uint256",
				"name": "marketID",
				"type": "uint256"
			},
			{
				"indexed": false,
				"internalType": "uint256",
				"name": "otherMarketID",
				"type": "uint256"
			}
		],
		"name": "OtherMarketID",
		"type": "event"
	},
	{
		"anonymous": false,
		"inputs": [
			{
				"indexed": false,
				"internalType": "uint256",
				"name": "transactionID",
				"type": "uint256"
			}
		],
		"name": "PartialOrder",
		"type": "event"
	},
	{
		"anonymous": false,
		"inputs": [
			{
				"indexed": true,
				"internalType": "address",
				"name": "assayer",
				"type": "address"
			},
			{
				"indexed": false,
				"internalType": "uint256",
				"name": "auditID",
				"type": "uint256"
			},
			{
				"indexed": false,
				"internalType": "uint256",
				"name": "assayID",
				"type": "uint256"
			},
			{
				"indexed": false,
				"internalType": "bool",
				"name": "refund",
				"type": "bool"
			}
		],
		"name": "RevealedAssay",
		"type": "event"
	},
	{
		"anonymous": false,
		"inputs": [
			{
				"indexed": false,
				"internalType": "uint256",
				"name": "transactionID",
				"type": "uint256"
			}
		],
		"name": "Transaction",
		"type": "event"
	},
	{
		"anonymous": false,
		"inputs": [
			{
				"indexed": false,
				"internalType": "uint256",
				"name": "transactionID",
				"type": "uint256"
			},
			{
				"indexed": false,
				"internalType": "uint256",
				"name": "receiptID",
				"type": "uint256"
			}
		],
		"name": "TransactionReceipt",
		"type": "event"
	},
	{
		"anonymous": false,
		"inputs": [
			{
				"indexed": true,
				"internalType": "address",
				"name": "implementation",
				"type": "address"
			}
		],
		"name": "Upgraded",
		"type": "event"
	},
	{
		"inputs": [
			{
				"internalType": "uint256",
				"name": "newMarket",
				"type": "uint256"
			},
			{
				"internalType": "uint256",
				"name": "marketID",
				"type": "uint256"
			}
		],
		"name": "addOtherMarket",
		"outputs": [],
		"stateMutability": "nonpayable",
		"type": "function"
	},
	{
		"inputs": [
			{
				"internalType": "uint256",
				"name": "_auditID",
				"type": "uint256"
			},
			{
				"internalType": "uint256",
				"name": "assayID",
				"type": "uint256"
			}
		],
		"name": "assayerWithdrawFee",
		"outputs": [],
		"stateMutability": "nonpayable",
		"type": "function"
	},
	{
		"inputs": [
			{
				"internalType": "uint256[2][]",
				"name": "assays",
				"type": "uint256[2][]"
			}
		],
		"name": "assayerWithdrawFees",
		"outputs": [],
		"stateMutability": "nonpayable",
		"type": "function"
	},
	{
		"inputs": [
			{
				"internalType": "address",
				"name": "_delegate",
				"type": "address"
			},
			{
				"internalType": "uint256",
				"name": "marketID",
				"type": "uint256"
			}
		],
		"name": "assignDelegate",
		"outputs": [],
		"stateMutability": "nonpayable",
		"type": "function"
	},
	{
		"inputs": [
			{
				"internalType": "uint256",
				"name": "transactionID",
				"type": "uint256"
			},
			{
				"internalType": "uint256",
				"name": "blocks",
				"type": "uint256"
			},
			{
				"internalType": "address",
				"name": "paymentTokenAddress",
				"type": "address"
			},
			{
				"internalType": "uint256",
				"name": "auditPrice",
				"type": "uint256"
			}
		],
		"name": "audit",
		"outputs": [],
		"stateMutability": "nonpayable",
		"type": "function"
	},
	{
		"inputs": [
			{
				"internalType": "uint256[]",
				"name": "tokenBanList",
				"type": "uint256[]"
			},
			{
				"internalType": "uint256",
				"name": "marketID",
				"type": "uint256"
			}
		],
		"name": "banTokenID",
		"outputs": [],
		"stateMutability": "nonpayable",
		"type": "function"
	},
	{
		"inputs": [
			{
				"internalType": "uint256",
				"name": "",
				"type": "uint256"
			},
			{
				"internalType": "uint256",
				"name": "",
				"type": "uint256"
			}
		],
		"name": "banned",
		"outputs": [
			{
				"internalType": "bool",
				"name": "",
				"type": "bool"
			}
		],
		"stateMutability": "view",
		"type": "function"
	},
	{
		"inputs": [
			{
				"internalType": "uint256",
				"name": "transactionID",
				"type": "uint256"
			}
		],
		"name": "cancelTransaction",
		"outputs": [],
		"stateMutability": "nonpayable",
		"type": "function"
	},
	{
		"inputs": [
			{
				"internalType": "uint256",
				"name": "_auditID",
				"type": "uint256"
			},
			{
				"internalType": "bytes32",
				"name": "saltedCommit",
				"type": "bytes32"
			},
			{
				"internalType": "address",
				"name": "assayerNFT",
				"type": "address"
			},
			{
				"internalType": "uint256",
				"name": "tokenID",
				"type": "uint256"
			}
		],
		"name": "commitAssay",
		"outputs": [],
		"stateMutability": "nonpayable",
		"type": "function"
	},
	{
		"inputs": [
			{
				"internalType": "uint256",
				"name": "transactionID",
				"type": "uint256"
			}
		],
		"name": "confrmPartialOrder",
		"outputs": [],
		"stateMutability": "nonpayable",
		"type": "function"
	},
	{
		"inputs": [
			{
				"internalType": "address",
				"name": "_owner",
				"type": "address"
			},
			{
				"internalType": "address",
				"name": "_assayerNFT",
				"type": "address"
			},
			{
				"internalType": "uint16",
				"name": "_feePercent",
				"type": "uint16"
			},
			{
				"internalType": "uint256",
				"name": "_auditTimeExtension",
				"type": "uint256"
			}
		],
		"name": "createMarket",
		"outputs": [],
		"stateMutability": "nonpayable",
		"type": "function"
	},
	{
		"inputs": [
			{
				"internalType": "address",
				"name": "buyer",
				"type": "address"
			},
			{
				"internalType": "address",
				"name": "seller",
				"type": "address"
			},
			{
				"internalType": "bytes32",
				"name": "spec",
				"type": "bytes32"
			},
			{
				"internalType": "address",
				"name": "_paymentTokenAddress",
				"type": "address"
			},
			{
				"internalType": "uint256",
				"name": "paymentAmount",
				"type": "uint256"
			},
			{
				"internalType": "uint256",
				"name": "blocks",
				"type": "uint256"
			},
			{
				"internalType": "bytes",
				"name": "buyerSignature",
				"type": "bytes"
			},
			{
				"internalType": "bytes",
				"name": "sellerSignature",
				"type": "bytes"
			},
			{
				"internalType": "uint256",
				"name": "marketID",
				"type": "uint256"
			}
		],
		"name": "createTransaction",
		"outputs": [],
		"stateMutability": "nonpayable",
		"type": "function"
	},
	{
		"inputs": [
			{
				"internalType": "bytes32[]",
				"name": "spec",
				"type": "bytes32[]"
			},
			{
				"internalType": "address[]",
				"name": "_paymentTokenAddress",
				"type": "address[]"
			},
			{
				"internalType": "uint256[]",
				"name": "paymentAmount",
				"type": "uint256[]"
			},
			{
				"internalType": "uint256[]",
				"name": "blocks",
				"type": "uint256[]"
			},
			{
				"internalType": "uint256",
				"name": "marketID",
				"type": "uint256"
			}
		],
		"name": "createTransactions",
		"outputs": [],
		"stateMutability": "nonpayable",
		"type": "function"
	},
	{
		"inputs": [
			{
				"internalType": "uint256",
				"name": "transactionID",
				"type": "uint256"
			},
			{
				"internalType": "uint256",
				"name": "_auditID",
				"type": "uint256"
			},
			{
				"internalType": "bytes32",
				"name": "evidence",
				"type": "bytes32"
			}
		],
		"name": "fillEvidence",
		"outputs": [],
		"stateMutability": "nonpayable",
		"type": "function"
	},
	{
		"inputs": [
			{
				"internalType": "uint256",
				"name": "auditID",
				"type": "uint256"
			}
		],
		"name": "getAudit",
		"outputs": [
			{
				"components": [
					{
						"internalType": "bytes32",
						"name": "buyerEvidence",
						"type": "bytes32"
					},
					{
						"internalType": "bytes32",
						"name": "sellerEvidence",
						"type": "bytes32"
					},
					{
						"internalType": "uint256",
						"name": "expiry",
						"type": "uint256"
					},
					{
						"internalType": "uint256",
						"name": "price",
						"type": "uint256"
					},
					{
						"internalType": "address",
						"name": "paymentTokenAddress",
						"type": "address"
					},
					{
						"internalType": "bool",
						"name": "resolved",
						"type": "bool"
					},
					{
						"internalType": "bool",
						"name": "refund",
						"type": "bool"
					},
					{
						"internalType": "bool",
						"name": "resolvedByVerdict",
						"type": "bool"
					},
					{
						"components": [
							{
								"internalType": "address",
								"name": "assayerNFT",
								"type": "address"
							},
							{
								"internalType": "uint256",
								"name": "tokenID",
								"type": "uint256"
							},
							{
								"internalType": "bytes32",
								"name": "commit",
								"type": "bytes32"
							},
							{
								"internalType": "bool",
								"name": "revealed",
								"type": "bool"
							},
							{
								"internalType": "bool",
								"name": "paid",
								"type": "bool"
							}
						],
						"internalType": "struct DAM_Escrow.assayerInput[]",
						"name": "commits",
						"type": "tuple[]"
					},
					{
						"internalType": "bool[]",
						"name": "verdicts",
						"type": "bool[]"
					},
					{
						"internalType": "uint256",
						"name": "marketID",
						"type": "uint256"
					}
				],
				"internalType": "struct DAM_Escrow.auditData",
				"name": "",
				"type": "tuple"
			}
		],
		"stateMutability": "view",
		"type": "function"
	},
	{
		"inputs": [
			{
				"internalType": "uint256",
				"name": "marketID",
				"type": "uint256"
			}
		],
		"name": "getMarket",
		"outputs": [
			{
				"components": [
					{
						"internalType": "address",
						"name": "owner",
						"type": "address"
					},
					{
						"internalType": "address",
						"name": "delegate",
						"type": "address"
					},
					{
						"internalType": "address",
						"name": "assayerNFT",
						"type": "address"
					},
					{
						"internalType": "uint256[]",
						"name": "otherMarkets",
						"type": "uint256[]"
					},
					{
						"internalType": "uint16",
						"name": "feePercent",
						"type": "uint16"
					},
					{
						"internalType": "uint256",
						"name": "auditTimeExtension",
						"type": "uint256"
					}
				],
				"internalType": "struct DAM_Escrow.marketData",
				"name": "",
				"type": "tuple"
			}
		],
		"stateMutability": "view",
		"type": "function"
	},
	{
		"inputs": [
			{
				"internalType": "bool",
				"name": "refund",
				"type": "bool"
			},
			{
				"internalType": "bytes32",
				"name": "salt",
				"type": "bytes32"
			}
		],
		"name": "getSaltedHash",
		"outputs": [
			{
				"internalType": "bytes32",
				"name": "",
				"type": "bytes32"
			}
		],
		"stateMutability": "view",
		"type": "function"
	},
	{
		"inputs": [
			{
				"internalType": "uint256",
				"name": "transcationID",
				"type": "uint256"
			}
		],
		"name": "getTransaction",
		"outputs": [
			{
				"components": [
					{
						"internalType": "address",
						"name": "buyer",
						"type": "address"
					},
					{
						"internalType": "address",
						"name": "seller",
						"type": "address"
					},
					{
						"internalType": "bytes32",
						"name": "spec",
						"type": "bytes32"
					},
					{
						"internalType": "address",
						"name": "paymentTokenAddress",
						"type": "address"
					},
					{
						"internalType": "uint256",
						"name": "paymentAmount",
						"type": "uint256"
					},
					{
						"internalType": "uint256",
						"name": "expiry",
						"type": "uint256"
					},
					{
						"internalType": "bytes",
						"name": "buyerSignature",
						"type": "bytes"
					},
					{
						"internalType": "bytes",
						"name": "sellerSignature",
						"type": "bytes"
					},
					{
						"internalType": "uint256[]",
						"name": "auditIDs",
						"type": "uint256[]"
					},
					{
						"internalType": "bool",
						"name": "finished",
						"type": "bool"
					},
					{
						"internalType": "uint256",
						"name": "marketID",
						"type": "uint256"
					}
				],
				"internalType": "struct DAM_Escrow.transactionData",
				"name": "",
				"type": "tuple"
			}
		],
		"stateMutability": "view",
		"type": "function"
	},
	{
		"inputs": [
			{
				"internalType": "address",
				"name": "_owner",
				"type": "address"
			},
			{
				"internalType": "address",
				"name": "_assayerNFT",
				"type": "address"
			},
			{
				"internalType": "uint16",
				"name": "_feePercent",
				"type": "uint16"
			},
			{
				"internalType": "uint256",
				"name": "_auditTimeExtension",
				"type": "uint256"
			}
		],
		"name": "initialize",
		"outputs": [],
		"stateMutability": "nonpayable",
		"type": "function"
	},
	{
		"inputs": [
			{
				"internalType": "uint256",
				"name": "",
				"type": "uint256"
			}
		],
		"name": "receipts",
		"outputs": [
			{
				"internalType": "bytes32",
				"name": "",
				"type": "bytes32"
			}
		],
		"stateMutability": "view",
		"type": "function"
	},
	{
		"inputs": [
			{
				"internalType": "uint256",
				"name": "_auditID",
				"type": "uint256"
			},
			{
				"internalType": "bool",
				"name": "refund",
				"type": "bool"
			}
		],
		"name": "resolveAudit",
		"outputs": [],
		"stateMutability": "nonpayable",
		"type": "function"
	},
	{
		"inputs": [
			{
				"internalType": "uint256",
				"name": "_auditID",
				"type": "uint256"
			},
			{
				"internalType": "bool",
				"name": "refund",
				"type": "bool"
			},
			{
				"internalType": "bytes32",
				"name": "salt",
				"type": "bytes32"
			},
			{
				"internalType": "uint256",
				"name": "assayID",
				"type": "uint256"
			}
		],
		"name": "revealAssay",
		"outputs": [],
		"stateMutability": "nonpayable",
		"type": "function"
	},
	{
		"inputs": [
			{
				"internalType": "address",
				"name": "_assayerNFT",
				"type": "address"
			},
			{
				"internalType": "uint256",
				"name": "marketID",
				"type": "uint256"
			}
		],
		"name": "setAssayerNFT",
		"outputs": [],
		"stateMutability": "nonpayable",
		"type": "function"
	},
	{
		"inputs": [
			{
				"internalType": "uint256",
				"name": "transactionID",
				"type": "uint256"
			},
			{
				"internalType": "bytes32",
				"name": "receipt",
				"type": "bytes32"
			}
		],
		"name": "takeOrder",
		"outputs": [],
		"stateMutability": "nonpayable",
		"type": "function"
	},
	{
		"inputs": [
			{
				"internalType": "uint256",
				"name": "transactionID",
				"type": "uint256"
			},
			{
				"internalType": "bytes32",
				"name": "spec",
				"type": "bytes32"
			},
			{
				"internalType": "uint256",
				"name": "offerAmount",
				"type": "uint256"
			}
		],
		"name": "takePartialOrder",
		"outputs": [],
		"stateMutability": "nonpayable",
		"type": "function"
	},
	{
		"inputs": [
			{
				"internalType": "address",
				"name": "newowner",
				"type": "address"
			},
			{
				"internalType": "uint256",
				"name": "marketID",
				"type": "uint256"
			}
		],
		"name": "transferOwnership",
		"outputs": [],
		"stateMutability": "nonpayable",
		"type": "function"
	},
	{
		"inputs": [
			{
				"internalType": "uint256",
				"name": "_auditTimeExtension",
				"type": "uint256"
			},
			{
				"internalType": "uint256",
				"name": "marketID",
				"type": "uint256"
			}
		],
		"name": "updateAuditTimeExtension",
		"outputs": [],
		"stateMutability": "nonpayable",
		"type": "function"
	},
	{
		"inputs": [
			{
				"internalType": "uint256[]",
				"name": "newSet",
				"type": "uint256[]"
			},
			{
				"internalType": "uint256",
				"name": "marketID",
				"type": "uint256"
			}
		],
		"name": "updateOtherMarkets",
		"outputs": [],
		"stateMutability": "nonpayable",
		"type": "function"
	},
	{
		"inputs": [
			{
				"internalType": "address",
				"name": "newImplementation",
				"type": "address"
			}
		],
		"name": "upgradeTo",
		"outputs": [],
		"stateMutability": "nonpayable",
		"type": "function"
	},
	{
		"inputs": [
			{
				"internalType": "address",
				"name": "newImplementation",
				"type": "address"
			},
			{
				"internalType": "bytes",
				"name": "data",
				"type": "bytes"
			}
		],
		"name": "upgradeToAndCall",
		"outputs": [],
		"stateMutability": "payable",
		"type": "function"
	},
	{
		"inputs": [
			{
				"internalType": "uint256",
				"name": "transactionID",
				"type": "uint256"
			}
		],
		"name": "withdraw",
		"outputs": [],
		"stateMutability": "nonpayable",
		"type": "function"
	}
]